Categories:Reading
License:MIT
Web Site:http://newsblur.com
Source Code:https://github.com/samuelclay/NewsBlur
Issue Tracker:https://github.com/samuelclay/NewsBlur/issues

Auto Name:NewsBlur
Summary:News reader
Description:
Newsblur is software that runs on a server and collects RSS/Atom feeds for you
to read. If you don't have that you can sign up for a freemium account at
newsblur.com.  The feeds can be read in a web browser or using this app.
.

Repo Type:git
Repo:https://github.com/samuelclay/NewsBlur.git

Build:1.0.0,24
    commit=f022c8b40
    subdir=media/android/NewsBlur
    srclibs=ActionBarSherlock@4.1.0
    prebuild=sed -i 's@\(android.library.reference.1=\).*@\1$$ActionBarSherlock$$@' project.properties

Build:1.0.55,29
    commit=855b8d0
    subdir=media/android/NewsBlur
    srclibs=ActionBarSherlock@4.1.0
    prebuild=sed -i 's@\(android.library.reference.1=\).*@\1$$ActionBarSherlock$$@' project.properties

Build:1.1,31
    commit=f460904d
    subdir=media/android/NewsBlur
    init=rm -rf libs/ActionBarSherlock/bin/ libs/ActionBarSherlock/gen/
    prebuild=cd ../../ && \
        ls |grep -v android |xargs rm -rf && \
        cd ../ && \
        ls |grep -v media |xargs rm -rf
    update=.,libs/ActionBarSherlock

Build:1.2,32
    commit=8b13f22a
    subdir=media/android/NewsBlur
    init=rm -rf libs/ActionBarSherlock/bin/ libs/ActionBarSherlock/gen/
    prebuild=cd ../../ && \
        ls |grep -v android |xargs rm -rf && \
        cd ../ && \
        ls |grep -v media |xargs rm -rf
    update=.,libs/ActionBarSherlock

Build:1.3.2,35
    commit=6a8e8e309b27076d2d15fc0
    subdir=media/android/NewsBlur
    init=rm -rf libs/ActionBarSherlock/bin/ libs/ActionBarSherlock/gen/
    srclibs=Google-Gson@gson-2.2.4
    prebuild=cd ../../ && \
        ls |grep -v android |xargs rm -rf && \
        cd ../ && \
        ls |grep -v media |xargs rm -rf && \
        echo "android.library.reference.2=$$Google-Gson$$" > project.properties
    update=.,libs/ActionBarSherlock

Build:2.0.2,38
    commit=bfff77749
    subdir=clients/android/NewsBlur
    init=rm -rf libs/ActionBarSherlock/bin/ libs/ActionBarSherlock/gen/
    srclibs=Google-Gson@gson-2.2.4
    prebuild=cp -r $$Google-Gson$$/src/main/java/com/google src/com/ && \
        rm libs/gson*.jar && \
        cd ../../ && \
        ls |grep -v android |xargs rm -rf && \
        cd ../ && \
        ls |grep -v clients |xargs rm -rf
    update=.,libs/ActionBarSherlock

Build:2.5.0,43
    commit=b3eb49128b32
    subdir=clients/android/NewsBlur
    init=rm -rf libs/ActionBarSherlock/bin/ libs/ActionBarSherlock/gen/
    prebuild=cd ../../ && \
        ls | grep -v android | xargs rm -rf && \
        cd ../ && \
        ls | grep -v clients | xargs rm -rf
    update=.,libs/ActionBarSherlock

Build:3.0.0,44
    commit=0d3e904e3549b
    subdir=clients/android/NewsBlur
    prebuild=cd ../.. && \
        ls | grep -v android | xargs rm -rf && \
        cd .. && \
        ls | grep -v clients | xargs rm -rf

Build:3.5.5,57
    commit=9af2c61e6870627
    subdir=clients/android/NewsBlur
    prebuild=cd ../.. && \
        ls | grep -v android | xargs rm -rf && \
        cd .. && \
        ls | grep -v clients | xargs rm -rf

Build:3.6.1,59
    commit=5b1f1445272e56
    subdir=clients/android/NewsBlur
    prebuild=cd ../.. && \
        ls | grep -v android | xargs rm -rf && \
        cd .. && \
        ls | grep -v clients | xargs rm -rf

Build:3.6.2,60
    commit=6cf3ba4668b
    subdir=clients/android/NewsBlur
    prebuild=cd ../.. && \
        ls | grep -v android | xargs rm -rf && \
        cd .. && \
        ls | grep -v clients | xargs rm -rf

Build:3.6.3,61
    commit=66403ba5399868
    subdir=clients/android/NewsBlur
    prebuild=cd ../.. && \
        ls | grep -v android | xargs rm -rf && \
        cd .. && \
        ls | grep -v clients | xargs rm -rf

Build:3.7.0,64
    commit=d7435a079d4
    subdir=clients/android/NewsBlur
    prebuild=cd ../.. && \
        ls | grep -v android | xargs rm -rf && \
        cd .. && \
        ls | grep -v clients | xargs rm -rf

Build:3.7.0b2,65
    commit=ac14aa3c6
    subdir=clients/android/NewsBlur
    prebuild=cd ../.. && \
        ls | grep -v android | xargs rm -rf && \
        cd .. && \
        ls | grep -v clients | xargs rm -rf

Build:3.7.0,67
    commit=b4cdc2a8d14
    subdir=clients/android/NewsBlur
    prebuild=cd ../.. && \
        ls | grep -v android | xargs rm -rf && \
        cd .. && \
        ls | grep -v clients | xargs rm -rf

Build:3.7.1,68
    commit=d7cfe818
    subdir=clients/android/NewsBlur
    prebuild=cd ../.. && \
        ls | grep -v android | xargs rm -rf && \
        cd .. && \
        ls | grep -v clients | xargs rm -rf

Build:4.0.0b1,70
    disable=beta
    commit=ia5bd229f1d774fed857e1725f6ae7ef3cb7e3c0b

Maintainer Notes:
No tags, but commits are usually clearly marked. Note that the android client is
just a small part of the larger repo.
.

Auto Update Mode:None
Update Check Mode:RepoManifest
Current Version:4.0.0b1
Current Version Code:70

